{
    "revision-intro": {
        "title": "Introduction",
        "description": "Présentation des concepts à connaître pour suivre ce cours.",
        "component": "RevisionIntro",
        "group": "notes",
        "tags": ["introduction", "cours précédent"]
    },
    "revision-html": {
        "title": "Révision du HTML",
        "description": "Révision des concepts de base et des bonnes pratiques du langage de balisage HTML.",
        "component": "RevisionHTML",
        "group": "notes",
        "tags": ["révision", "html", "bonne pratiques"]
    },
    "revision-css": {
        "title": "Révision du CSS",
        "description": "Révision des concepts de base et des bonnes pratiques du langage de déclaration de style CSS.",
        "component": "RevisionCSS",
        "group": "notes",
        "tags": ["révision", "css", "bonne pratiques"]
    },
    "outils": {
        "title": "Outils et logiciels",
        "description": "Présentation et liens de téléchargement des différents outils et logiciels utilisé dans le cours.",
        "component": "Outils",
        "group": "notes",
        "tags": ["outils", "logiciel", "node.js", "xampp", "apache", "php", "asp.net", "visual studio code", "mysql", "mariadb", "c#", "mysql"]
    },
    "revision-js": {
        "title": "Révision du Javascript",
        "description": "Révision des concepts de base et des bonnes pratiques du langage de programmation Javascript.",
        "component": "RevisionJS",
        "group": "notes",
        "tags": ["révision", "js", "bonne pratiques"]
    },
    "njs-intro": {
        "title": "Introduction à Node.js",
        "description": "Introduction à la plateforme Node.js pour exécuter du Javascript à l'extérieur d'un navigateur web.",
        "component": "NJSIntro",
        "group": "notes",
        "tags": ["node.js", "javascript", "introduction"]
    },
    "njs-creation": {
        "title": "Création d'un projet Node.js",
        "description": "Présentation des étapes pour créer un projet avec Node.js.",
        "component": "NJSCreation",
        "group": "notes",
        "tags": ["node.js", "javascript", "introduction"]
    },
    "njs-import": {
        "title": "Importer des modules",
        "description": "",
        "component": "NJSImport",
        "group": "notes",
        "tags": ["node.js", "javascript", "require", "import", "module"]
    },
    "njs-io": {
        "title": "Entrée et sortie",
        "description": "",
        "component": "NJSInputOutput",
        "group": "notes",
        "tags": ["node.js", "javascript", "input", "output", "entrée", "sortie", "terminal", "console"]
    },
    "njs-async": {
        "title": "Code asynchrone",
        "description": "",
        "component": "NJSAsynchrone",
        "group": "notes",
        "tags": ["node.js", "javascript", "asynchrone", "promesse", "callback", "async", "await"]
    },
    "njs-fichier": {
        "title": "Manipulation de fichiers",
        "description": "",
        "component": "NJSFichier",
        "group": "notes",
        "tags": ["node.js", "javascript", "input", "output", "entrée", "sortie", "fichier"]
    },
    "njs-module": {
        "title": "Création de modules",
        "description": "",
        "component": "NJSModule",
        "group": "notes",
        "tags": ["node.js", "javascript", "module", "require", "export"]
    },
    "be-client-serveur": {
        "title": "Architechture client-serveur",
        "description": "Présentation du fonctionnement de l'Internet et des différences entre un client et un serveur.",
        "component": "BackendClientServeur",
        "group": "notes",
        "tags": ["réseau", "client", "serveur", "communication", "internet", "web"]
    },
    "be-http": {
        "title": "Protocole HTTP",
        "description": "Présentation du protocole HTTP, de ses méthodes, de ses codes et de ses limitations.",
        "component": "BackendHTTP",
        "group": "notes",
        "tags": ["réseau", "protocole", "http", "communication", "méthode", "code"]
    },
    "be-plan": {
        "title": "Planifier son API serveur",
        "description": "Démonstration d'une planification simple d'API en fonction d'une situation.",
        "component": "BackendPlan",
        "group": "notes",
        "tags": ["réseau", "protocole", "http", "communication", "méthode", "route"]
    },
    "be-json": {
        "title": "Données JSON",
        "description": "Présentation du format de données JSON.",
        "component": "BackendJSON",
        "group": "notes",
        "tags": ["réseau", "protocole", "http", "communication", "données"]
    },
    "be-npm": {
        "title": "Installation de package sur Node.js",
        "description": "Démonstration d'installation de librairies externe pour vos projets Javascript en Node.js avec NPM.",
        "component": "BackendNPM",
        "group": "notes",
        "tags": ["node.js", "npm", "installation", "package"]
    },
    "be-express": {
        "title": "Express - Introduction",
        "description": "Installation et utilisation de base de la librairie Express.",
        "component": "BackendExpress",
        "group": "notes",
        "tags": ["node.js", "javascript", "express", "serveur"]
    },
    "be-middleware": {
        "title": "Express - Utilisation de middlewares",
        "description": "Installation et utilisation de base de la librairie Express et de certains middlewares.",
        "component": "BackendMiddleware",
        "group": "notes",
        "tags": ["node.js", "javascript", "express", "serveur", "middleware", "helmet", "compression", "json", "urlencoded"]
    },
    "be-route": {
        "title": "Express - Programmation de routes",
        "description": "Programmation de route dans Express pour exécuter des actions lors de la réception d'appel HTTP.",
        "component": "BackendRoute",
        "group": "notes",
        "tags": ["node.js", "javascript", "express", "serveur", "middleware", "helmet", "compression", "json", "urlencoded"]
    },
    "be-postman": {
        "title": "Tester un serveur Web",
        "description": "Utilisation de Postman comme client pour envoyer des requêtes HTTP et tester les routes d'un serveur.",
        "component": "BackendPostman",
        "group": "notes",
        "tags": ["postman", "serveur", "http", "postman"]
    },
    "fe-type-serveur": {
        "title": "Types de fonctionnement des serveurs Web",
        "description": "Présentation de la différence entre un serveur statique et dynamique.",
        "component": "FETypeServeur",
        "group": "notes",
        "tags": ["client", "serveur", "apache", "express", "statique", "dynamique", "hybride"]
    },
    "fe-fetch": {
        "title": "Fonction Fetch",
        "description": "Utilisation de la fonction fetch dans la programmation d'un client pour ennvoyer des requêtes au serveur.",
        "component": "FEFetch",
        "group": "notes",
        "tags": ["client", "javascript", "http", "fetch", "promise"]
    },
    "fe-donnee": {
        "title": "Envoyer des données",
        "description": "Sélection et organisation des données à envoyer au serveur.",
        "component": "FEDonnee",
        "group": "notes",
        "tags": ["client", "javascript", "http", "fetch", "promise"]
    },
    "validation-client": {
        "title": "Validation du côté client",
        "description": "",
        "component": "ValidationClient",
        "group": "notes",
        "tags": ["client", "javascript", "validation", "contrainte"]
    },
    "validation-form-to-json": {
        "title": "Envoyer les données d'un formulaire en JSON",
        "description": "",
        "component": "ValidationFormToJson",
        "group": "notes",
        "tags": ["client", "javascript", "validation", "formulaire", "json"]
    },
    "validation-serveur": {
        "title": "Validation du côté serveur",
        "description": "",
        "component": "ValidationServeur",
        "group": "notes",
        "tags": ["node.js", "serveur", "javascript", "validation"]
    },
    "debug-erreurs": {
        "title": "Erreurs communes",
        "description": "",
        "component": "DebugError",
        "group": "notes",
        "tags": ["erreur", "bogue", "debogage"]
    },
    "debug-client": {
        "title": "Déboguer le client",
        "description": "",
        "component": "DebugClient",
        "group": "notes",
        "tags": ["outil de développement", "débogueur", "client", "navigateur"]
    },
    "debug-serveur": {
        "title": "Déboguer le serveur",
        "description": "",
        "component": "DebugServer",
        "group": "notes",
        "tags": ["outil de développement", "débogueur", "serveur", "visual studio code"]
    },
    "db-mysql": {
        "title": "Connecter Node.js à MySQL",
        "description": "Présentation de l'utilisation d'une base de données MySQL dans Node.js.",
        "component": "DBMySQL",
        "group": "notes",
        "tags": ["mysql", "base de données", "node.js"]
    },
    "db-sqlite": {
        "title": "Connecter Node.js à SQLite",
        "description": "Présentation de l'utilisation d'une base de données SQLite dans Node.js.",
        "component": "DBSQLite",
        "group": "notes",
        "tags": ["sqlite", "base de données", "node.js"]
    },
    "db-express": {
        "title": "Utilisation d'une base de données dans Express",
        "description": "Présentation de l'utilisation d'une base de données avec Express.",
        "component": "DBExpress",
        "group": "notes",
        "tags": ["sqlite", "base de données", "node.js"]
    },
    "templating-server": {
        "title": "Génération serveur de HTML",
        "description": "Présentation de la génération de HTML par le serveur et de sa dualité avec la génération par le client.",
        "component": "TempServer",
        "group": "notes",
        "tags": ["templating", "modèle", "génération"]
    },
    "templating-handlebars": {
        "title": "Handlebars",
        "description": "Démonstration de l'installation et l'utilisation de Handlebars pour générer des pages HTML sur le serveur.",
        "component": "TempHandlebars",
        "group": "notes",
        "tags": ["templating", "modèle", "génération", "handlebars", "html", "npm"]
    },
    "templating-data": {
        "title": "Générer avec des données",
        "description": "Démonstration de l'utitlisation de données pour générer des sections de pages sur le serveur.",
        "component": "TempData",
        "group": "notes",
        "tags": ["templating", "modèle", "génération", "handlebars", "html", "donnée"]
    },
    "templating-helpers": {
        "title": "Helpers",
        "description": "Démonstration de l'utilisation de fonction d'aide avec Handlebars.",
        "component": "TempHelpers",
        "group": "notes",
        "tags": ["templating", "modèle", "génération", "handlebars", "html", "helpers"]
    },
    "templating-layouts-partials": {
        "title": "Layouts et partials",
        "description": "Démonstration de l'utilisation de pages partielles et de mise en page avec Handlebars.",
        "component": "TempPartials",
        "group": "notes",
        "tags": ["templating", "modèle", "génération", "handlebars", "html", "partials", "layouts"]
    },

    "session-intro": {
        "title": "Introduction aux sessions",
        "description": "Explication du concept des sessions dans une application web et démonstration de leur installation dans Express.",
        "component": "SessionIntro",
        "group": "notes",
        "tags": ["données", "session", "cookies"]
    },
    "session-var": {
        "title": "Utilisation des sessions",
        "description": "Présentation de l'utilisation simple des sessions dans un serveur web Express.",
        "component": "SessionVar",
        "group": "notes",
        "tags": ["données", "session", "cookies", "variables"]
    },
    "auth-intro": {
        "title": "Introduction",
        "description": "Présentation de du fonctionnement d'une authentification sécuritaire.",
        "component": "AuthIntro",
        "group": "notes",
        "tags": ["authentification", "connexion", "utilisateur"]
    },
    "auth-installation": {
        "title": "Installations",
        "description": "Présentation des librairies de code nécessaire pour faire l'authentification sur Express avec Node.js.",
        "component": "AuthInstall",
        "group": "notes",
        "tags": ["authentification", "connexion", "utilisateur", "installation"]
    },
    "auth-database": {
        "title": "Base de données d'authentification",
        "description": "Démonstration d'une base de données pouvant servir pour l'authentification.",
        "component": "AuthDatabase",
        "group": "notes",
        "tags": ["authentification", "connexion", "utilisateur", "base de données", "données", "database", "sqlite"]
    },
    "auth-configuration": {
        "title": "Configuration",
        "description": "Démonstration d'une configuration de base pour gérer l'authentification sur un serveur web.",
        "component": "AuthConfig",
        "group": "notes",
        "tags": ["authentification", "connexion", "utilisateur", "configuration", "sérialisation", "login"]
    },
    "auth-routes": {
        "title": "Routes HTTP",
        "description": "Programmation de routes pour gérer l'authentification sur un serveur web.",
        "component": "AuthRoutes",
        "group": "notes",
        "tags": ["authentification", "connexion", "déconnexion", "utilisateur", "routes", "login", "logout", "compte"]
    },
    "auth-ui": {
        "title": "Interface graphique",
        "description": "Programmation d'interface graphique pour lancer des requêtes aux routes d'authentification.",
        "component": "AuthUI",
        "group": "notes",
        "tags": ["authentification", "connexion", "déconnexion", "utilisateur", "routes", "login", "logout", "compte"]
    },
    "auth-access": {
        "title": "Gestion des accès",
        "description": "Démonstration de comment protéger certaines routes du serveur avec l'authentification.",
        "component": "AuthAccess",
        "group": "notes",
        "tags": ["authentification", "connexion", "utilisateur", "routes", "accès", "droit"]
    },
    "sse-backend": {
        "title": "Envoyer des évènements à partir du serveur",
        "description": "",
        "component": "SSEBackend",
        "group": "notes",
        "tags": ["node.js", "express", "serveur", "stream", "javascript", "données", "server sent event"]
    },
    "sse-event-source": {
        "title": "EventSource",
        "description": "",
        "component": "SSEEventSource",
        "group": "notes",
        "tags": ["node.js", "express", "client", "stream", "javascript", "données", "eventsource"]
    },
    "sse-broadcast": {
        "title": "Broadcast en temps réel",
        "description": "",
        "component": "SSEBroadcast",
        "group": "notes",
        "tags": ["node.js", "express", "client", "serveur", "stream", "javascript", "broadcast", "multicast"]
    },
    "https-certificate": {
        "title": "HTTPS et certificats",
        "description": "Présentation du protocole HTTPS et démonstration de la création d'un certificat de développement.",
        "component": "HTTPSCertificat",
        "group": "notes",
        "tags": ["https", "certificat", "ssl"]
    },
    "https-config": {
        "title": "HTTPS et Express",
        "description": "Démonstration de la configuration du HTTPS dans un serveur Express avec Node.js.",
        "component": "HTTPSConfig",
        "group": "notes",
        "tags": ["node.js", "express", "https", "serveur"]
    },
    "host": {
        "title": "Hébergement",
        "description": "Démonstration de l'hébergement d'un projet sur une plateforme en ligne comme Heroku.",
        "component": "Host",
        "group": "notes",
        "tags": ["host", "hébergement", "serveur", "heroku"]
    },


    "php-intro": {
        "title": "Introduction au PHP",
        "description": "",
        "component": "PHPIntro",
        "group": "notes",
        "tags": ["php", "apache", "intro"]
    },
    "php-variables": {
        "title": "Variables et types",
        "description": "",
        "component": "PHPVariable",
        "group": "notes",
        "tags": ["php", "variable", "type de donnes"]
    },
    "php-control-operator": {
        "title": "Instruction de contrôle et opérateurs",
        "description": "",
        "component": "PHPControlOperator",
        "group": "notes",
        "tags": ["php", "instruction de contrôle", "opérateur"]
    },
    "php-template": {
        "title": "Templating serveur",
        "description": "",
        "component": "PHPTemplate",
        "group": "notes",
        "tags": ["php", "html", "template", "données"]
    },
    "php-error": {
        "title": "Déboguer le PHP",
        "description": "",
        "component": "PHPError",
        "group": "notes",
        "tags": ["php", "deboguer", "fichier de log", "apache"]
    },
    "php-route": {
        "title": "Routes HTTP en PHP",
        "description": "",
        "component": "PHPRoute",
        "group": "notes",
        "tags": ["php", "route", "requête", "réponse"]
    },
    "php-validation": {
        "title": "Valider les données en PHP",
        "description": "",
        "component": "PHPValidation",
        "group": "notes",
        "tags": ["php", "validation", "requête", "body"]
    },
    "php-data": {
        "title": "Persistence de donnée en PHP",
        "description": "",
        "component": "PHPData",
        "group": "notes",
        "tags": ["php", "données", "persistence", "base de données"]
    },
    "php-session": {
        "title": "Sessions en PHP",
        "description": "",
        "component": "PHPSession",
        "group": "notes",
        "tags": ["php", "données", "session"]
    },
    "asp-project": {
        "title": "Création d'un projet",
        "description": "",
        "component": "ASPProject",
        "group": "notes",
        "tags": ["asp.net core", "projet"]
    },
    "asp-csharp": {
        "title": "Introduction au C#",
        "description": "",
        "component": "ASPCSharp",
        "group": "notes",
        "tags": ["asp.net core", "c#"]
    },
    "asp-razor": {
        "title": "Introduction aux pages Razor",
        "description": "",
        "component": "ASPRazor",
        "group": "notes",
        "tags": ["asp.net core", "razor"]
    },
    "asp-form": {
        "title": "Formulaire pour envoyer des données",
        "description": "",
        "component": "ASPForm",
        "group": "notes",
        "tags": ["asp.net core", "formulaire"]
    },
    "asp-services": {
        "title": "Utilisation de services",
        "description": "",
        "component": "ASPServices",
        "group": "notes",
        "tags": ["asp.net core", "services"]
    },
    "asp-route": {
        "title": "Programmation de routes",
        "description": "",
        "component": "ASPRoute",
        "group": "notes",
        "tags": ["asp.net core", "route"]
    },


    "laboratoire-outils": {
        "title": "Installation des logiciels",
        "description": "Laboratoire sur l'installation des logiciels pour le cours.",
        "component": "LaboratoireOutils",
        "group": "labs",
        "tags": ["outils", "navigateur web", "visual studio code", "nodejs", "postman", "git", "openssl", "heroku cli"]
    },
    "laboratoire-revision-html-css": {
        "title": "Exercices de révision - HTML et CSS",
        "description": "Laboratoire proposant des exercices de révision simple sur le HTML et CSS.",
        "component": "LaboratoireRevisionHTMLCSS",
        "group": "labs",
        "tags": ["révision", "html", "css"]
    },
    "laboratoire-reproduction": {
        "title": "Reproduction d'une interface",
        "description": "Laboratoire sur la reproduction d'une interface graphique en HTML et CSS.",
        "component": "LaboratoireReproduction",
        "group": "labs",
        "tags": ["révision", "html", "css", "interface", "telestration", "esquissé"]
    },
    "laboratoire-revision-js": {
        "title": "Exercices de révision - JS",
        "description": "Laboratoire proposant des exercices de révision simple en Javascript dans le navigateur web.",
        "component": "LaboratoireRevisionJS",
        "group": "labs",
        "tags": ["révision", "javascript", "js"]
    },
    "laboratoire-nodejs": {
        "title": "Exercices de Javascript avec Node.js",
        "description": "Laboratoire proposant des exercices de base simple en Javascript sur Node.js.",
        "component": "LaboratoireNodeJS",
        "group": "labs",
        "tags": ["node.js", "javascript"]
    },
    "laboratoire-module": {
        "title": "Exercices de Javascript avec module",
        "description": "Laboratoire proposant des exercices de avec les modules en Javascript sur Node.js.",
        "component": "LaboratoireNodeJSModule",
        "group": "labs",
        "tags": ["node.js", "javascript", "module"]
    },
    "laboratoire-hangman": {
        "title": "Jeu du bonhomme pendu",
        "description": "Laboratoire sur le développement d'un jeu du bonhomme pendu en ligne de commande.",
        "component": "LaboratoireHangman",
        "group": "labs",
        "tags": ["nodejs", "javascript"]
    },
    "laboratoire-todo-serveur": {
        "title": "Serveur de liste TODO",
        "description": "Laboratoire sur le développement d'un API serveur pour manipuler les données d'une liste TODO.",
        "component": "LaboratoireTodoServeur",
        "group": "labs",
        "tags": ["express", "serveur", "route", "postman"]
    },
    "laboratoire-todo-handlebars": {
        "title": "Rendu serveur avec la liste TODO",
        "description": "Laboratoire sur l'utilisation du rendu serveur avec Handlebars dans le projet de la liste TODO.",
        "component": "LaboratoireTodoHandlebars",
        "group": "labs",
        "tags": ["express", "serveur", "handlebars", "rendu"]
    },
    "laboratoire-librairie": {
        "title": "La librairie",
        "description": "Laboratoire sur la programmation d'un API serveur pour manipuler les données d'une librairie.",
        "component": "LaboratoireLibrairie",
        "group": "labs",
        "tags": ["express", "serveur", "route", "postman"]
    },
    "laboratoire-salle": {
        "title": "La salle de clavardage",
        "description": "Laboratoire sur le développement d'un API serveur pour manipuler les données de salles de clavardage.",
        "component": "LaboratoireSalle",
        "group": "labs",
        "tags": ["express", "serveur", "route", "postman"]
    },
    "laboratoire-todo": {
        "title": "La liste TODO",
        "description": "Laboratoire sur le développement d'une application client-serveur complète qui gère une liste de TODO.",
        "component": "LaboratoireTodo",
        "group": "labs",
        "tags": ["express", "client", "serveur"]
    },
    "laboratoire-bogue": {
        "title": "Identification et correction d'erreurs",
        "description": "Laboratoire sur l'identification et la correction de bogue dans un projet client-serveur.",
        "component": "LaboratoireBogue",
        "group": "labs",
        "tags": ["erreur", "bogue", "débogueur", "débogage"]
    },
    "laboratoire-salle-ui": {
        "title": "La salle de clavardage v1.5",
        "description": "Laboratoire sur le développement d'une interface graphique client de salle de clavardage qui se connecte à un API serveur.",
        "component": "LaboratoireSalleUI",
        "group": "labs",
        "tags": ["express", "client", "serveur"]
    },
    "laboratoire-ramen": {
        "title": "Commande de ramens",
        "description": "Laboratoire sur la validation des données sur le côté client et sur le côté serveur avec un formulaire de commande de ramen.",
        "component": "LaboratoireRamen",
        "group": "labs",
        "tags": ["validation", "formulaire"]
    },
    "laboratoire10": {
        "title": "Laboratoire 10 - Liste TODO",
        "description": "",
        "component": "Laboratoire10",
        "group": "labs",
        "tags": ["server sent event", "broadcast", "temps réel"]
    },
    "laboratoire11": {
        "title": "Laboratoire 11 - Clavardage Anonymus",
        "description": "",
        "component": "Laboratoire11",
        "group": "labs",
        "tags": ["server sent event", "broadcast", "temps réel"]
    },
    "laboratoire14": {
        "title": "Laboratoire 14 - Générer des pages avec PHP",
        "description": "",
        "component": "Laboratoire14",
        "group": "labs",
        "tags": ["php", "template", "données"]
    },
    "laboratoire15": {
        "title": "Laboratoire 15 - Programmer des routes en PHP",
        "description": "",
        "component": "Laboratoire15",
        "group": "labs",
        "tags": ["php", "route", "requête", "réponse"]
    },
    "laboratoire16": {
        "title": "Laboratoire 16 - Génération de page avec Razor",
        "description": "",
        "component": "Laboratoire16",
        "group": "labs",
        "tags": ["asp.net core", "razor", "c#"]
    },
    "laboratoire17": {
        "title": "Laboratoire 17 - Formulaire ASP.NET Core",
        "description": "",
        "component": "Laboratoire17",
        "group": "labs",
        "tags": ["asp.net core", "razor", "services", "c#"]
    },
    "laboratoire18": {
        "title": "Laboratoire 18 - Controlleurs et routes",
        "description": "",
        "component": "Laboratoire18",
        "group": "labs",
        "tags": ["asp.net core", "razor", "services", "controlleur", "route", "c#"]
    },

    "web1website": {
        "title": "Programmation Internet I",
        "url": "https://ord14737.gitlab.io/notes-de-cours/",
        "group": "ress",
        "tags": ["cours précédant", "programmation internet 1", "programmation internet i", "html", "css", "javascript"]
    },
    "js-async": {
        "title": "Promises, async/await",
        "url": "https://javascript.info/async",
        "group": "ress",
        "tags": ["javascript", "asynchrone", "promesse", "callback", "async", "await"]
    },
    "express": {
        "title": "Express",
        "url": "https://expressjs.com/",
        "group": "ress",
        "tags": ["node.js", "express", "serveur", "documentation", "route"]
    },
    "js-fetch": {
        "title": "Fetch",
        "url": "https://javascript.info/fetch",
        "group": "ress",
        "tags": ["http", "fetch", "promise"]
    },
    "sse": {
        "title": "Server-Sent Events with Express",
        "url": "https://masteringjs.io/tutorials/express/server-sent-events",
        "group": "ress",
        "tags": ["données", "server sent event"]
    },
    "constraint-validation": {
        "title": "Constraint validation",
        "url": "https://developer.mozilla.org/en-US/docs/Web/Guide/HTML/HTML5/Constraint_validation",
        "group": "ress",
        "tags": ["validation", "formulaire"]
    },
    "php-manual": {
        "title": "PHP Manual",
        "url": "https://www.php.net/manual/en/index.php",
        "group": "ress",
        "tags": ["php"]
    },

    "template-base": {
        "title": "Gabarit de base",
        "description": "Gabarit de projet express vide pour créer un serveur web rapidement.",
        "component": "TemplateBase",
        "group": "template",
        "tags": ["express", "gabarit", "base"]
    },
    "template-hybride": {
        "title": "Gabarit de serveur hybride",
        "description": "Gabarit de projet express contenant le middleware static pour créer un serveur web hybride rapidement.",
        "component": "TemplateHybride",
        "group": "template",
        "tags": ["express", "gabarit", "statique", "dynamique", "hybride"]
    },
    "template-view": {
        "title": "Gabarit de serveur avec rendu de HTML",
        "description": "Gabarit de projet express contenant un utilitaire de génération serveur de HTML.",
        "component": "TemplateView",
        "group": "template",
        "tags": ["express", "gabarit", "view", "génération", "rendu", "modèle"]
    }
}
